%YAML 1.1
%TAG !u! tag:unity3d.com,2011:
--- !u!114 &11400000
MonoBehaviour:
  m_ObjectHideFlags: 0
  m_CorrespondingSourceObject: {fileID: 0}
  m_PrefabInstance: {fileID: 0}
  m_PrefabAsset: {fileID: 0}
  m_GameObject: {fileID: 0}
  m_Enabled: 1
  m_EditorHideFlags: 0
  m_Script: {fileID: 11500000, guid: 192dc0d91bfaa4a6382df6b67c746194, type: 3}
  m_Name: Window_Rounded_ModExample
  m_EditorClassIdentifier: 
  _itemType: 4
  _itemSubType: 2
  _itemName: A New Rounded Window
  _itemDescription: Example of a window in the rounded shape.
  _iconSprite: {fileID: 21300000, guid: bfc540f1158de0541817988364c788fc, type: 3}
  MainPrefab: {fileID: 3228869810438900828, guid: 234adc8de69cf3245875f221822503dd,
    type: 3}
  SecondaryPrefab: {fileID: 0}
  PlacementRestriction: 0
  PlacementSize: 0
  _viewingArray: 010101010001010101
  VisitorInteractsWithItem: 0
  VisitorStoppingDistance: 0.25
  MaxVisitorSearchDistance: 5
  MaxVisitorsAllowedPerSpot: 1
  CollectionId: 
  Rarity: 0
  WallFrameItemDimensions: {x: 0, y: 0}
  WallFramePadding: 0.1
  MaterialVariants: []
  Material: {fileID: 0}
  WallConstraint: 0
  WindowWallTypeId: 0
  DoorWallTypeId: 0
  HasDoorFrame: 0
